Studying Social Inequality with Data Science - Data transformation
…
pivot_longer() to reshape data

In this step, you will use pivot_longer() to convert your summarized object to a new object called pivoted. We first explain why, then explain the task.

We ultimately want to make a ggplot() where income values are placed on the y-axis. We want to plot the 10th, 50th, and 90th percentiles along this axis, distinguished by color. We need them all in one colun! But currently, they are in three columns.

Here is the task. How our data look:

# A tibble: 62 × 4
   year   p10   p50   p90
  <dbl> <dbl> <dbl> <dbl>
1  1962  2000  5100  9000
2  1963  2000  5200  9200
# ℹ 60 more rows

Here we want our data to look:

# A tibble: 186 × 3
   year quantity income
  <dbl> <chr>     <dbl>
1  1962 p10        2000
2  1962 p50        5100
3  1962 p90        9000
4  1963 p10        2000
5  1963 p50        5200
6  1963 p90        9200
# ℹ 180 more rows
…
left_join() an inflation adjustment

In this step, you will use left_join() to merge in an inflation adjustment

A dollar in 1962 bought a lot more than a dollar in 2022. We will adjust for inflation using the Consumer Price Index, which tracks the cost of a standard basket of market goods. We already took this index to create a file inflation.csv,

inflation <- read_csv("https://info3370.github.io/data/inflation.csv")

# A tibble: 62 × 2
   year inflation_factor
  <dbl>            <dbl>
1  1962            10.1 
2  1963             9.95
3  1964             9.82
# ℹ 59 more rows

The inflation_factor tells us that $1 in 1962 could buy about as much as $10.10 in 2023. To take a 1962 income and report it in 2023 dollars, we should multiple it by 10.1. We need to join our data

# A tibble: 186 × 3
   year quantity income
  <dbl> <chr>     <dbl>
1  1962 p10        2000
2  1962 p50        5100
3  1962 p90        9000
# ℹ 183 more rows
…
