Studying Social Inequality with Data Science - Population Sampling
…
Example: Baseball players

As one example where full-count enumeration is possible, we will examine the salaries of all 944 Major League Baseball Players who were on active rosters, injured lists, and restricted lists on Opening Day 2023. These data were compiled by USA Today and are available in baseball.csv.

baseball <- read_csv("https://info3370.github.io/data/baseball.csv")

# A tibble: 944 × 4
  player            team         position   salary
  <chr>             <chr>        <chr>       <dbl>
1 Scherzer, Max     N.Y. Mets    RHP      43333333
2 Verlander, Justin N.Y. Mets    RHP      43333333
3 Judge, Aaron      N.Y. Yankees OF       40000000
4 Rendon, Anthony   L.A. Angels  3B       38571429
5 Trout, Mike       L.A. Angels  OF       37116667
# ℹ 939 more rows
…
To use this function, we give it the baseball data as the population and it returns a tibble containing a sample of 60 players.

simple_sample(population = baseball)

# A tibble: 60 × 6
   player          team         position   salary p_sampled sampling_weight
   <chr>           <chr>        <chr>       <dbl>     <dbl>           <dbl>
 1 Assad, Javier   Chicago Cubs RHP        721500    0.0636            15.7
 2 Garcia, Jose    Cincinnati   SS         730000    0.0636            15.7
 3 Gore, MacKenzie Washington   LHP        723300    0.0636            15.7
 4 Rucker, Michael Chicago Cubs RHP        737000    0.0636            15.7
 5 Wong, Kolten    Seattle      2B       10000000    0.0636            15.7
 6 Kelly, Merrill  Arizona      RHP       8500000    0.0636            15.7
 7 Renfroe, Hunter L.A. Angels  OF       11900000    0.0636            15.7
 8 Urias, Luis     Milwaukee    2B        4700000    0.0636            15.7
 9 Alvarado, Jose  Philadelphia LHP       3450000    0.0636            15.7
10 Law, Derek      Cincinnati   RHP       1000000    0.0636            15.7
# ℹ 50 more rows
…
