Studying Social Inequality with Data Science - Weights
…
# A tibble: 2 × 2
  sex        estimate
  <dbl+lbl>     <dbl>
1 1 [male]      0.369
2 2 [female]    0.397

Using the foreach package, we apply the estimator 160 times—once with each replicate weight—and use the argument .combine = "rbind" to stitch results together by rows.

library(foreach)
replicate_estimates <- foreach(r = 1:160, .combine = "rbind") %do% {
  estimator(data = cps_data, weight_name = paste0("repwtp",r))
}

# A tibble: 320 × 2
   sex        estimate
   <dbl+lbl>     <dbl>
 1 1 [male]      0.368
 2 2 [female]    0.396
 3 1 [male]      0.371
 4 2 [female]    0.400
 5 1 [male]      0.371
 6 2 [female]    0.397
 7 1 [male]      0.369
 8 2 [female]    0.397
 9 1 [male]      0.370
10 2 [female]    0.398
# ℹ 310 more rows
…
